ID	NALT	NMIN	NHET	NVAR	RATE	SING	TITV	PASS	PASS_S	QUAL	DP
M372-BCG-18-13	16399	13403	11992	273878	0.592572	572	1.93797	13403	326	93013.8	6240.08
M372-BCG-4-47	21047	17527	15745	295029	0.638335	982	1.95465	17527	658	75590.5	5228.85
M372-BCG-48-60	23546	19853	18016	309850	0.670403	2431	1.72969	19853	2110	68295.8	5059.4
M372-GC-18-58	16318	13492	12106	252959	0.547311	1070	1.91593	13492	844	91350.1	6357.7
M372-GC-4-31	13778	11384	10137	230051	0.497747	324	1.74379	11384	114	103370	7209.16
M372-GC-48-44	21774	17998	16149	316758	0.685349	671	1.92413	17998	321	76729.8	5258.55
M372-Rv+-18-144	23333	20108	18444	289717	0.626842	4636	1.60534	20108	4347	64156	5121.95
M372-Rv+-4-120	22823	18872	16939	324698	0.702528	991	1.86286	18872	611	72790	4953.62
M372-Rv+-48-27	13698	11253	9987	246652	0.533665	460	1.93735	11253	251	105563	6950.6
M372-Rv-18-115	17829	14915	13467	266335	0.576252	1398	1.72072	14915	1150	82366.3	5874.06
M372-Rv-4-87	58224	52834	48489	380333	0.822902	24373	1.6727	52834	23649	28672.1	2574.83
M372-Rv-48-54	23050	19346	17475	313097	0.677428	1823	1.84458	19346	1487	70172.5	4998.32
M372-Salm-18-73	22275	19562	18024	249629	0.540106	6144	1.57462	19562	5905	60622.9	5479.05
M372-Salm-4-88	11917	9946	8895	196323	0.424771	701	1.87789	9946	546	104877	7227.03
M372-Salm-48-129	19424	16103	14460	285591	0.617915	871	2.05444	16103	591	80061.1	5515.95
M372-Smeg-18-35	16440	13427	12002	252743	0.546844	461	2.09521	13427	182	92523.1	6249.33
M372-Smeg-4-75	19317	16474	14975	269699	0.58353	2658	1.60954	16474	2407	74984.5	5702.21
M372-Smeg-48-6	20372	16911	15146	298701	0.64628	904	2.06303	16911	573	79744.2	5593.27
M372-Staph-18-67	11162	9259	8288	189374	0.409736	798	1.87904	9259	664	110056	7657.25
M372-Staph-4-101	20538	17177	15486	301600	0.652553	1071	1.72824	17177	788	76575.3	5377.44
M372-Yers-18-14	16867	13881	12446	264143	0.571509	542	2.12283	13881	307	88059.3	6023.56
M372-Yers-4-149	19470	16362	14769	277015	0.59936	1400	1.81231	16362	1118	77661.6	5496.71
M372-Yers-48-76	20358	17175	15567	286496	0.619873	2140	1.72101	17175	1870	74753	5519.64
M372-none-18-102	18876	15815	14223	283426	0.613231	1210	1.72531	15815	932	80257.2	5678.2
M372-none-4-1	10716	8866	7878	179086	0.387477	346	1.68504	8866	166	117968	8123.8
M372-none-48-68	17769	14879	13368	258957	0.560289	1826	1.8063	14879	1554	81837.6	5892.26
M373-BCG-18-147	15277	12943	11586	226467	0.489992	1394	1.65443	12943	1194	95047.9	7042.51
M373-BCG-4-137	15189	13039	11883	223130	0.482772	2172	1.55416	13039	1992	90846.1	6945.08
M373-BCG-48-83	24864	21668	19712	292045	0.631879	4942	1.61817	21668	4639	63165.6	5232.15
M373-GC-18-3	13713	11383	10107	215158	0.465524	777	1.80508	11383	574	103892	7193.61
M373-GC-4-143	16862	14560	13204	218287	0.472294	3026	1.45987	14560	2796	81071.7	6700.82
M373-GC-48-150	14768	12618	11452	187483	0.405645	2289	1.68012	12618	2102	88616.4	7228.59
M373-Rv+-18-79	21816	19093	17317	262791	0.568584	4752	1.59627	19093	4495	67839.8	5786.64
M373-Rv+-4-70	23237	19693	17595	308105	0.666627	2542	1.80967	19693	2184	71176	5133.29
M373-Rv+-48-15	14517	12053	10718	220719	0.477556	841	1.72939	12053	619	96839.8	6768.17
M373-Rv-18-41	13760	11530	10222	227454	0.492128	634	1.64692	11530	429	104389	7305.99
M373-Rv-4-153	26129	23371	20806	241371	0.522239	9847	1.72009	23371	9566	52048.5	5770.79
M373-Rv-48-134	23791	20257	18037	321919	0.696515	2155	1.75119	20257	1816	70492	4992.16
M373-Salm-18-45	17870	15052	13430	260927	0.564551	721	1.84806	15052	465	85931.7	6188.69
M373-Salm-4-72	15150	12880	11461	212523	0.459822	1869	1.61523	12880	1662	90455.5	6769.89
M373-Salm-48-26	16923	14110	12439	273172	0.591045	571	1.9983	14110	306	91736	6185.56
M373-Smeg-18-105	24308	20523	18288	320016	0.692398	1585	1.816	20523	1187	69991.1	5028.48
M373-Smeg-4-154	31277	27513	25063	318142	0.688343	7657	1.7819	27513	7257	52017.4	4332.88
M373-Smeg-48-86	10721	9035	7990	164934	0.356857	1020	1.786	9035	884	116876	8655.89
M373-Staph-18-34	16216	13479	12006	243198	0.526192	601	1.92386	13479	325	93904.2	6421.93
M373-Staph-4-20	14536	12099	10800	215749	0.466802	604	1.73486	12099	375	98300.1	6902.54
M373-Yers-18-7	11096	9215	8141	184821	0.399885	293	1.82669	9215	144	120910	8366.17
M373-Yers-4-123	15774	13266	11782	241108	0.52167	1048	1.73019	13266	823	93793.9	6677.88
M373-Yers-48-46	17830	15004	13447	242024	0.523652	1070	1.88428	15004	795	84568.6	6133.27
M373-none-18-57	11695	9775	8681	179555	0.388492	817	1.8424	9775	646	108660	7658.13
M373-none-4-127	20407	17222	15392	276225	0.59765	1740	1.74367	17222	1422	76756.7	5645.24
M373-none-48-96	16842	14652	13279	186739	0.404035	3497	1.50976	14652	3251	72495.1	6309.84
M374-BCG-18-111	19508	16582	14736	275694	0.596501	1344	1.72551	16582	1062	80417.2	5843.15
M374-BCG-4-99	22723	19987	18128	264268	0.57178	5334	1.59168	19987	5056	64208.6	5574.11
M374-BCG-48-4	8629	7185	6349	114175	0.247033	464	1.66111	7185	317	116637	8535.31
M374-GC-18-89	9097	7802	6882	130012	0.281299	1072	1.68664	7802	958	118659	8914.66
M374-GC-4-114	12901	11401	10281	130151	0.281599	3683	1.75786	11401	3536	80393.4	7812.05
M374-GC-48-66	22613	19951	18145	234548	0.507476	5812	1.69099	19951	5524	61738.4	5710.9
M374-Rv+-18-132	15642	13196	11688	227335	0.49187	868	1.75089	13196	610	92605.1	6607.65
M374-Rv+-4-59	16055	13629	12053	238046	0.515045	1345	1.86987	13629	1105	90207.6	6506.85
M374-Rv+-48-106	16610	14106	12605	213322	0.461551	1364	1.74543	14106	1074	83134.5	6180.04
M374-Rv-18-64	14016	11852	10454	223473	0.483514	936	1.71461	11852	728	101665	7140.84
M374-Rv-4-11	6453	5433	4845	71709	0.155152	830	1.65672	5433	722	111143	8760.85
M374-Rv-48-125	14005	12216	11033	155059	0.335491	2829	1.6766	12216	2657	83176.3	7400.35
M374-Salm-18-142	15516	13728	12415	180051	0.389565	3882	1.68913	13728	3718	79081.8	7092.58
M374-Salm-4-29	6512	5416	4683	97931	0.211887	162	1.74089	5416	62	149073	10108
M374-Salm-48-103	29559	25797	23158	333616	0.721824	3296	1.87624	25797	2869	57048.4	4315.85
M374-Smeg-18-130	18651	15776	14058	256354	0.554657	1052	1.78974	15776	747	83019.7	6098.11
M374-Smeg-4-42	9559	8343	7591	88577	0.191648	2624	1.78378	8343	2475	81898.5	7504.7
M374-Smeg-48-119	14417	12202	10827	202959	0.439129	929	1.81476	12202	718	94923.2	7060.82
M374-Staph-18-94	9584	8266	7403	113978	0.246607	1762	1.80203	8266	1642	104605	8731.14
M374-Staph-4-53	19141	16470	14733	257395	0.556909	2671	1.66894	16470	2423	77845	5937.5
M374-Yers-18-146	48365	43882	39909	349899	0.757054	17313	1.6373	43882	16674	34280.8	3258.78
M374-Yers-4-21	13831	11778	10539	169660	0.367082	1557	1.64199	11778	1340	88203	6630.93
M374-Yers-48-133	17666	15394	13794	240055	0.519392	2749	1.60871	15394	2541	77260.4	6170.99
M374-none-18-117	14978	13054	11868	161930	0.350358	2940	1.53377	13054	2740	74775.8	6447.71
M374-none-4-82	21485	18730	16905	254243	0.550089	4245	1.62288	18730	3948	67694.9	5657.02
M374-none-48-19	8175	6949	6150	99347	0.214951	1065	1.84213	6949	931	111213	8720.43
M375-BCG-18-152	16528	14037	12614	236498	0.511696	1869	1.88887	14037	1642	90016.5	6512.72
M375-BCG-4-40	13103	10867	9703	199843	0.432387	593	1.61163	10867	366	104942	7292.45
M375-BCG-48-84	51718	46531	42648	371676	0.804171	17318	1.69573	46531	16626	33411.7	2997.46
M375-GC-18-95	26201	23331	21197	249688	0.540234	8344	1.41973	23331	8034	54729.5	5636.85
M375-GC-4-118	15892	13313	11915	247038	0.5345	830	1.76835	13313	584	95518.2	6705.73
M375-GC-48-151	16761	14180	12655	255945	0.553772	1155	1.87161	14180	929	90706.5	6408.05
M375-Rv+-18-121	16106	13557	12185	238061	0.515077	833	1.70977	13557	576	93104.6	6657.28
M375-Rv+-4-49	24626	21294	19281	296274	0.641029	4556	1.70744	21294	4224	64639.8	5020.22
M375-Rv+-48-100	17958	15320	13881	227728	0.49272	1985	1.77135	15320	1706	79631.5	5951.15
M375-Rv-18-62	41702	36524	33161	372766	0.80653	8975	1.81322	36524	8327	42931.7	3288.36
M375-Rv-4-148	19058	16147	14521	275045	0.595097	1599	1.72156	16147	1308	82106.6	5956.93
M375-Rv-48-135	26209	23266	21284	248415	0.53748	8128	1.59752	23266	7795	54166.5	5263.27
M375-Salm-18-136	20538	17584	15952	264848	0.573035	2312	1.65941	17584	2008	74104.8	5583.28
M375-Salm-4-91	12643	11238	10140	134460	0.290922	3635	1.54253	11238	3492	83104.9	7982.25
M375-Salm-48-28	22202	18782	16657	308753	0.668029	860	2.09781	18782	525	74382.2	5026.94
M375-Smeg-18-107	19769	16592	14864	286122	0.619064	979	1.94916	16592	655	82974.8	5782.78
M375-Smeg-4-77	20730	18445	16833	227341	0.491883	6212	1.50034	18445	6012	65214.7	6377.89
M375-Smeg-48-2	15524	13347	12116	180715	0.391001	2306	1.83677	13347	2079	82575.1	6591.95
M375-Staph-18-25	7163	6007	5277	110034	0.238073	465	1.93024	6007	360	148791	10264.1
M375-Staph-4-18	11747	9821	8780	177262	0.38353	496	1.63864	9821	295	109886	7591.22
M375-Yers-18-23	15377	12974	11591	225537	0.48798	788	2.00324	12974	555	93875.4	6612.33
M375-Yers-4-126	15597	13187	11807	223246	0.483023	885	1.66727	13187	659	92572.1	6624.48
M375-Yers-48-39	13545	11433	10227	209148	0.45252	614	1.94361	11433	436	102886	7311.78
M375-none-18-56	15095	12870	11614	214004	0.463027	2022	1.84357	12870	1823	90488.1	6798.91
M375-none-4-5	8325	6883	6141	115622	0.250164	345	1.60424	6883	182	121013	8445.6
M375-none-48-69	12317	10492	9480	157169	0.340056	1785	1.77934	10492	1607	94486.8	7252.1
M376-BCG-18-17	11677	9664	8760	193850	0.419421	267	1.75799	9664	101	116256	8123.56
M376-BCG-4-141	19704	16832	15426	270944	0.586224	2795	1.75348	16832	2538	76238	5725.07
M376-BCG-48-50	24000	20305	18547	308998	0.668559	2474	1.96207	20305	2139	69088.8	5090.66
M376-GC-18-52	15772	13159	11968	245526	0.531229	1054	1.84827	13159	828	95945	6816.61
M376-GC-4-36	20077	16669	15111	280472	0.606839	733	2.04012	16669	390	80376.5	5460.01
M376-GC-48-65	17202	14422	13142	252117	0.545489	1160	1.97177	14422	931	88826.7	6385.51
M376-Rv+-18-140	18992	16063	14674	274323	0.593535	2168	1.83248	16063	1929	81769.8	5934.11
M376-Rv+-4-112	23551	19874	18160	311334	0.673613	1432	1.6698	19874	1063	70312.1	5143.24
M376-Rv+-48-30	13266	10960	9928	221877	0.480061	298	1.93205	10960	96	107097	7441.83
M376-Rv-18-43	17322	14427	13104	260499	0.563625	825	1.94489	14427	576	90081.3	6334.14
M376-Rv-4-10	17892	14922	13567	252227	0.545727	966	1.90029	14922	690	85810.9	6066.48
M376-Rv-48-122	20138	16850	15323	287633	0.622333	712	1.87592	16850	434	80418.4	5812.41
M376-Salm-18-78	17658	15046	13787	253689	0.548891	1844	1.73166	15046	1622	83045.8	6275.87
M376-Salm-4-63	15684	13207	11967	231906	0.50176	1007	1.78923	13207	778	89902.3	6303.08
M376-Salm-48-98	19798	16576	15112	267654	0.579106	1069	1.90756	16576	765	79272.8	5748.45
M376-Smeg-18-128	30077	25545	23309	347398	0.751643	1749	1.90714	25545	1300	59427	4310.65
M376-Smeg-4-48	18580	15751	14348	224089	0.484847	1952	1.83853	15751	1645	77041.5	5610.28
M376-Smeg-48-92	35439	30944	28610	328013	0.709701	7200	1.88495	30944	6715	47386.1	3928.37
M376-Staph-18-90	12540	10524	9573	198151	0.428727	988	1.63166	10524	817	108366	7961.53
M376-Staph-4-97	15831	13507	12327	229810	0.497225	1980	1.65938	13507	1786	89485.5	6813.01
M376-Yers-18-155	17143	14822	13640	216127	0.46762	2891	1.61919	14822	2697	81256.9	6850.01
M376-Yers-4-156	19061	16379	15042	234619	0.50763	3051	1.51675	16379	2787	75237.5	6066.05
M376-Yers-48-138	16948	14335	13095	245981	0.532213	1588	1.8907	14335	1366	86290.5	6364.64
M376-none-18-110	26263	22153	20175	328887	0.711592	1151	1.87365	22153	741	65482.1	4824.91
M376-none-4-81	22997	19967	18409	272400	0.589374	4503	1.61862	19967	4214	65288	5337.89
M376-none-48-24	14948	12410	11178	217213	0.46997	566	1.99252	12410	332	94670.6	6732.61
M377-BCG-18-116	16660	13774	12382	261087	0.564897	586	1.72267	13774	337	93107.6	6672.43
M377-BCG-4-104	21062	17405	15669	304000	0.657745	962	1.8168	17405	639	78734.5	5519.53
M377-BCG-48-8	16482	13575	12305	225891	0.488746	714	1.89384	13575	454	88732.3	6422.85
M377-GC-18-12	19133	15802	14213	277370	0.600128	924	1.7012	15802	625	84204.3	6041.16
M377-GC-4-139	21490	19078	15850	181467	0.392628	8356	1.76814	19078	8103	54301	6755.01
M377-GC-48-37	26028	21669	19553	334591	0.723933	1841	1.78988	21669	1426	66677	4781.83
M377-Rv+-18-74	32960	28513	26117	334618	0.723991	7444	1.6025	28513	6998	50635.5	4186.71
M377-Rv+-4-61	24107	20137	18156	317075	0.686035	2481	1.70622	20137	2109	68549	4959.86
M377-Rv+-48-16	15809	12941	11547	250064	0.541047	649	1.76931	12941	400	94472.2	6557.48
M377-Rv-18-109	28320	23753	21418	345927	0.74846	2498	1.82875	23753	2080	61695.3	4394.66
M377-Rv-4-85	21904	19432	17723	233388	0.504967	7347	1.60797	19432	7139	60087.7	6068.94
M377-Rv-48-55	23000	19467	17664	299631	0.648292	3017	1.85775	19467	2735	70464.3	5256.71
M377-Salm-18-38	22830	19026	17155	309978	0.670679	1557	1.84863	19026	1176	72707.5	5177.28
M377-Salm-4-22	11628	9582	8552	188667	0.408207	316	1.78062	9582	153	112543	7708.97
M377-Salm-48-124	25047	20938	18881	323994	0.701005	1137	1.84213	20938	776	67244.8	4879.65
M377-Smeg-18-32	21092	17451	15735	288311	0.6238	835	2.01191	17451	492	78389.6	5491.83
M377-Smeg-4-145	19033	16401	15030	237369	0.51358	3432	1.4512	16401	3208	74737.1	6303.46
M377-Smeg-48-113	24401	20485	18490	310801	0.67246	1585	1.86744	20485	1216	67620.3	4902.59
M377-Staph-18-71	19365	15934	14309	295787	0.639975	896	1.96723	15934	604	84332.1	5820.47
M377-Staph-4-51	25905	21828	19881	317024	0.685924	3343	1.73328	21828	2960	64637.5	4829.94
M377-Yers-18-9	20030	16555	14902	280099	0.606032	774	2.00127	16555	467	80257.4	5728.31
M377-Yers-4-33	18092	14813	13271	261591	0.565988	712	1.82045	14813	385	86900.5	5914.6
M377-Yers-48-80	22186	18725	17035	289255	0.625842	2581	1.75733	18725	2267	71097.8	5416.05
M377-none-18-108	17148	14153	12630	273893	0.592605	769	1.90915	14153	521	90959.7	6261.04
M377-none-4-131	23646	19523	17470	326923	0.707342	903	1.88418	19523	522	72733.5	4990.71
M377-none-48-93	11059	9483	8537	146660	0.317319	1943	1.78339	9483	1821	98845.3	8096.92
